id_forest,_bio_region_by_forest_type,min_forest_lai,max_forest_lai   
1,Atlantic BroadleafForest,0.24,2.9
2,Atlantic ConiferousForest,0.22,2.75
3,Atlantic MixedForest,0.21,2.85
4,Atlantic TransitionalWoodlandScrubForest,0.22,2.95
5,Mediterranean BroadleafForest,0.18,2.96
6,Mediterranean ConiferousForest,0.16,2.86
7,Mediterranean MixedForest,0.21,2.95
8,Mediterranean TransitionalWoodlandScrubForest,0.19,2.98
