year,scc,ascc
1992,16.73,0.63
1993,17.24,0.65
1994,17.78,0.67
1995,18.33,0.69
1996,18.89,0.71
1997,19.48,0.73
1998,20.08,0.76
1999,20.7,0.78
2000,21.34,0.8
2001,22,0.83
2002,22.68,0.85
2003,23.38,0.88
2004,24.11,0.91
2005,24.85,0.94
2006,25.62,0.96
2007,26.41,0.99
2008,27.23,1.02
2009,28.07,1.06
2010,28.94,1.09
2011,29.83,1.12
2012,30.76,1.16
2013,31.71,1.19
2014,32.69,1.23
2015,33.7,1.27
2016,34.71,1.31
2017,35.75,1.35
2018,36.82,1.39
2019,37.93,1.43
2020,39.07,1.47
